a;Ha mburg;1.5;1;1;100;1454284800;
b;Neapel;1;1;1;100;1454284800;
c;Übachpalenberg;1;1;1;100;1454284800;
x;Israel;1;1.5;1;100;1454284800;
F;Irak;1;1;1;100;1454284800;
ü;Rom;1;1;1;100;1454284800;
$;China;1;1;1;100;1454284800;
";Japan;1;1;1;100.5;1454284800;
